{
    "name": "SMC LT Handbook",
    "landing_text": "$(bold)Quick Commands$()$(list)$(c:/kubejs custom_command flightFix)$(t:Sometimes items that give flight stop working.\nThis will fix the Ring of Flight.\nDM me if you are using a flight item\nthat doesn't get fixed by this.)$(bold)$(9)Fix Flight()$(list)$(c:/kubejs custom_command setSelfSurvival)$(t:Switch to Survival)$(bold)$(2)Survival Mode$()$(list)$(c:/kubejs custom_command setSelfCreative)$(t:Switch to Creative)$(bold)$(c)Creative Mode$()$(list)$(c:/kubejs custom_command randomTeleport)$(t:Warning, this is a one way ticket!\nSpread radius is up to 1M blocks\n   from your current position.)$(bold)$(3)Random Teleport$()$(list)$(c:/kubejs custom_command lostMyHandbook)$(t:Can't use this button without the book lol\nGrab a backup via this button.)$(bold)$(8)I Lost My Handbook$()$(list)$(c:/kubejs custom_command CarePackage)$(t:Receive some items tailored to your Origin.)$(bold)$(b)Care Package$()",
    "version": 1,
    "creative_tab": "minecraft:tools_and_utilities",
    "use_resource_pack": true,
    "model": "patchouli:book_cyan",
    "pamphlet": true
}
