{
  "clientCapeType": "MINECRAFTCAPES",
  "enableOptifine": true,
  "enableLabyMod": false,
  "enableWynntils": false,
  "enableMinecraftCapesMod": true,
  "enableCosmetica": true,
  "enableCloaksPlus": false,
  "enableElytraTexture": true
}
